{
  "selectedColumns": [],
  "unit": {},
  "threshold": {},
  "nbBins": 15,
  "metaColumnTags": {},
  "columnBest": {},
  "columnSortBy": "avg",
  "mapLabels": [
    "error",
    "warn",
    "ok"
  ]
}
