Plan,KPI19,KPI13,KPI11,KPI25,KPI17,KPI1,KPI10,KPI2,KPI18,KPI22,KPI5,KPI8,KPI7,KPI23,KPI21,KPI3,KPI15,KPI24,KPI4,KPI14,KPI12,KPI6,KPI16,KPI9,KPI20
PlanA,"{'avg': 1755.3804256284836, 'med': 1757.9947623016053, 'perc95': 2348.1304310151454, 'min': 679.9629471671687, 'max': 2858.6332476718508}","{'avg': 752.2899842347532, 'med': 755.1735679916675, 'perc95': 1144.342334849986, 'min': 9.053505070448068, 'max': 1551.7255369907039}","{'avg': 27.601557483294744, 'med': 21.53897647472418, 'perc95': 367.4327900179499, 'min': -569.5879691325588, 'max': 641.9379543234247}","{'avg': 818.2820706609295, 'med': 823.060651747877, 'perc95': 1564.6623477418552, 'min': -518.8024835044837, 'max': 2158.1329149076873}","{'avg': 2362.439411322293, 'med': 2370.7293350545606, 'perc95': 2796.247291977049, 'min': 1618.5069663761026, 'max': 3189.762739537239}","{'avg': 496.40227672604993, 'med': 538.7532061780396, 'perc95': 1892.8272257709675, 'min': -1699.8278036809925, 'max': 2905.251527070268}","{'avg': 25.90380262297458, 'med': 29.79247179563109, 'perc95': 680.169591376444, 'min': -1159.6663730233588, 'max': 1378.0110870201624}","{'avg': 2340.3785714228234, 'med': 2304.8769661494694, 'perc95': 3357.8529569102184, 'min': 137.48107678944552, 'max': 4214.461055145074}","{'avg': 2985.685519948729, 'med': 2949.209653202723, 'perc95': 4023.7411301515194, 'min': 658.9908404470175, 'max': 5455.905062407606}","{'avg': 461.1183353243537, 'med': 454.1688178796775, 'perc95': 822.6951039617086, 'min': -236.0601350228133, 'max': 1038.9406484618498}","{'avg': 63.818752286577556, 'med': 53.387973071900305, 'perc95': 1507.1069528095923, 'min': -2194.4800348326926, 'max': 2476.8526932359696}","{'avg': 2384.0160342555064, 'med': 2385.3484719495864, 'perc95': 3060.550710323109, 'min': 1319.9979000925703, 'max': 3589.6696014892505}","{'avg': 491.64381965008505, 'med': 489.1643476137932, 'perc95': 627.755287406201, 'min': 245.80495807940417, 'max': 794.4088246465055}","{'avg': 2466.8457966591895, 'med': 2491.104193676127, 'perc95': 3666.0863881044133, 'min': 446.82579754596145, 'max': 4811.024708964399}","{'avg': 2963.349076577344, 'med': 2940.754935231225, 'perc95': 4008.8356801638756, 'min': 979.7508353308936, 'max': 4731.683504672448}","{'avg': 912.0151845821924, 'med': 910.9631711651357, 'perc95': 1471.7666546844175, 'min': -300.98040922946166, 'max': 2025.7865141526502}","{'avg': 2447.6839208797765, 'med': 2455.2855176604257, 'perc95': 3335.582815884045, 'min': 1001.0629044726832, 'max': 4129.063106236409}","{'avg': 253.3961510604411, 'med': 297.8425640036706, 'perc95': 1823.327064421615, 'min': -2580.6804286586625, 'max': 3578.5368498328635}","{'avg': 1967.534234548012, 'med': 1964.149344525857, 'perc95': 2750.553402131465, 'min': 604.6031914874445, 'max': 3591.528724681715}","{'avg': 1971.815598443893, 'med': 1990.234008136096, 'perc95': 3263.2613344736164, 'min': -167.46874690540835, 'max': 4126.97449607974}","{'avg': 2714.99515188406, 'med': 2696.61953584251, 'perc95': 3678.298702831886, 'min': 1089.1565118879498, 'max': 4565.048827004722}","{'avg': 2610.7368833366336, 'med': 2616.2409090583906, 'perc95': 2793.942027889941, 'min': 2215.0556723986447, 'max': 2934.3425118043524}","{'avg': 2829.657659279247, 'med': 2821.8992064773697, 'perc95': 3928.5946369212234, 'min': 978.5748289112141, 'max': 4772.2446098536275}","{'avg': 2771.211711452437, 'med': 2798.1424864132177, 'perc95': 3974.212404981473, 'min': 255.54737088209868, 'max': 4933.728427339429}","{'avg': 611.8828895411209, 'med': 615.8572309501255, 'perc95': 2282.219828369038, 'min': -2105.124466759519, 'max': 3364.3651574725936}"
PlanB,"{'avg': 1664.8125018207686, 'med': 1670.8233960441812, 'perc95': 2322.4492658984195, 'min': 543.9825014552043, 'max': 2887.8543816566785}","{'avg': 1261.3133975550195, 'med': 1266.2926961701635, 'perc95': 1645.3133098310109, 'min': 456.94891039005904, 'max': 1879.0664870663518}","{'avg': 2527.4623928509764, 'med': 2521.550879625764, 'perc95': 2898.614637591716, 'min': 1709.130019946796, 'max': 3029.220188876661}","{'avg': 2671.710285720738, 'med': 2655.4978714398153, 'perc95': 4106.053876422695, 'min': 77.69242723872821, 'max': 6159.9594927243215}","{'avg': 2946.4709313583744, 'med': 2950.3953162573566, 'perc95': 3757.5703848555772, 'min': 1454.0855886428935, 'max': 4546.62283981142}","{'avg': 1540.278088148482, 'med': 1528.6925099814662, 'perc95': 2440.8260392817647, 'min': 22.69293791897462, 'max': 3330.237768909421}","{'avg': 2865.0191049761934, 'med': 2870.768347376166, 'perc95': 3826.7083179000692, 'min': 1031.8204793042314, 'max': 4690.902354438222}","{'avg': 139.82794249797536, 'med': 129.81171373600375, 'perc95': 1001.6010855940776, 'min': -1368.813089458093, 'max': 1820.1943656223339}","{'avg': 2174.940843619914, 'med': 2173.008000838778, 'perc95': 2621.0090586881715, 'min': 1455.899628933485, 'max': 2998.223707313925}","{'avg': 2065.475527818436, 'med': 2072.3884217728037, 'perc95': 3129.645314205638, 'min': 489.82634993790725, 'max': 3737.8725768218806}","{'avg': 491.2494062792378, 'med': 456.40992250089533, 'perc95': 1703.6607352032916, 'min': -1612.445352860605, 'max': 3325.736343575377}","{'avg': 1032.1904373148238, 'med': 1031.826297138767, 'perc95': 2481.224580822083, 'min': -2010.6778514129544, 'max': 4323.628006348559}","{'avg': 1162.586381001328, 'med': 1127.4348812603023, 'perc95': 2294.8064868741703, 'min': -1367.2192387864052, 'max': 3070.7571026140477}","{'avg': 832.6669751174455, 'med': 832.5965153287616, 'perc95': 1795.767130941179, 'min': -821.4350342579033, 'max': 2347.808785142012}","{'avg': 617.3026575470814, 'med': 627.2205764959443, 'perc95': 1763.771615019346, 'min': -1329.3833087968774, 'max': 3020.608247102582}","{'avg': 2232.4766307269874, 'med': 2244.459617443978, 'perc95': 3182.889116153251, 'min': -35.08828254566788, 'max': 4021.6704387364953}","{'avg': 1266.6113215697137, 'med': 1261.1164728484227, 'perc95': 1678.555421980168, 'min': 599.2716935334065, 'max': 2214.90929401228}","{'avg': 81.53436962505008, 'med': 37.76349254325576, 'perc95': 1076.7966141541283, 'min': -1522.9299823681235, 'max': 1876.595851117002}","{'avg': 2442.2872840742825, 'med': 2428.307369062921, 'perc95': 3474.3217892349226, 'min': 716.6542353678717, 'max': 4716.416911627226}","{'avg': 1700.2896957583002, 'med': 1694.166735207596, 'perc95': 2160.3333613836235, 'min': 732.582619592424, 'max': 2684.7529337803953}","{'avg': 1317.669281057456, 'med': 1325.9433920264864, 'perc95': 1878.9891032652856, 'min': 220.71691895833692, 'max': 2442.711262867625}","{'avg': 1829.699142434673, 'med': 1832.1133408669148, 'perc95': 1925.9605650958792, 'min': 1640.6079188330598, 'max': 2007.1676341830162}","{'avg': 1460.7985508791216, 'med': 1442.4041602684465, 'perc95': 2663.2955368325693, 'min': -573.7038423135425, 'max': 3691.851936333538}","{'avg': 1634.030510218344, 'med': 1636.8060131810046, 'perc95': 2370.5397463207946, 'min': 88.57691878126661, 'max': 2894.288437208017}","{'avg': 1885.846227762652, 'med': 1856.621499959763, 'perc95': 2978.2390314553695, 'min': 175.3085535501234, 'max': 3882.58327962108}"
PlanC,"{'avg': 1144.4034109496367, 'med': 1131.9539999253398, 'perc95': 2063.1654487941323, 'min': -618.7498199071426, 'max': 2832.4864276318626}","{'avg': 415.92659895064145, 'med': 437.3044354244749, 'perc95': 1521.5425047042568, 'min': -1621.0577577413933, 'max': 2742.91655658801}","{'avg': 846.6488529772429, 'med': 847.4243149449354, 'perc95': 1210.9438337349818, 'min': 194.60248188908145, 'max': 1425.076140073696}","{'avg': 2298.350947215489, 'med': 2312.533181791955, 'perc95': 3491.6733819338133, 'min': 203.41463810049663, 'max': 4300.227783906051}","{'avg': 2308.3760900669345, 'med': 2299.374020033492, 'perc95': 3055.14817094008, 'min': 968.5171823369644, 'max': 3713.8572087430284}","{'avg': 2723.0892419410948, 'med': 2706.6605082080996, 'perc95': 3506.4814011660924, 'min': 1112.9370854186898, 'max': 4237.189601465757}","{'avg': 1451.0574057749143, 'med': 1447.5215281515918, 'perc95': 1941.911599545371, 'min': 714.1229321757802, 'max': 2403.0374994078197}","{'avg': 703.9916161635697, 'med': 701.5441477698047, 'perc95': 839.7806328526599, 'min': 472.18818754965116, 'max': 957.3622131330144}","{'avg': 2198.3594664903994, 'med': 2160.990846499622, 'perc95': 3389.176647006706, 'min': -589.9801149378377, 'max': 4408.086750178422}","{'avg': 1693.6807765593364, 'med': 1722.2715283069858, 'perc95': 2946.4273889688775, 'min': -584.5354248615697, 'max': 4049.3987880711284}","{'avg': 2199.5210424716856, 'med': 2216.569616820317, 'perc95': 3769.2277564434144, 'min': -702.9919677557109, 'max': 5232.365448753173}","{'avg': 773.4396113576554, 'med': 783.6663463087281, 'perc95': 1593.026450529991, 'min': -658.9295389795362, 'max': 2374.2128039595673}","{'avg': 1776.4938186090283, 'med': 1779.450316898627, 'perc95': 2025.7667035517284, 'min': 1346.8401565694198, 'max': 2233.5636353074906}","{'avg': 2593.865011224081, 'med': 2587.054993819584, 'perc95': 3034.6756077322616, 'min': 1652.8446746529487, 'max': 3409.219430776936}","{'avg': 103.8547412253911, 'med': 96.51264014579701, 'perc95': 791.4424973551528, 'min': -1054.6639947041704, 'max': 1140.6259154715772}","{'avg': 2349.211618082495, 'med': 2346.5517481366246, 'perc95': 2500.601775634488, 'min': 2083.1757960717514, 'max': 2672.1502996954196}","{'avg': 2895.5429451821797, 'med': 2894.211263053046, 'perc95': 2978.1998006814783, 'min': 2758.1221568365354, 'max': 3057.6245955047634}","{'avg': 2108.928412051659, 'med': 2105.7051077854608, 'perc95': 2515.253499322248, 'min': 1167.219760241875, 'max': 2849.0374315489125}","{'avg': 837.8139122159835, 'med': 846.1308838501717, 'perc95': 1467.362745154157, 'min': -261.67582134130635, 'max': 2165.5627246449076}","{'avg': 429.388105548417, 'med': 446.72630072783727, 'perc95': 1440.4855893505703, 'min': -1593.2617485076692, 'max': 2039.2149581735275}","{'avg': 2675.640020680598, 'med': 2670.073130701424, 'perc95': 2947.7105962023793, 'min': 2140.8249732493678, 'max': 3145.211044930981}","{'avg': 2676.7313094880737, 'med': 2688.6091029757195, 'perc95': 3468.4320412127677, 'min': 972.2090463746374, 'max': 4349.469973095776}","{'avg': 2532.8697954631425, 'med': 2541.4675785976965, 'perc95': 3530.715170028243, 'min': 649.7547374476717, 'max': 4712.558664253826}","{'avg': 2963.5202108923877, 'med': 2966.931497215093, 'perc95': 4323.531460875023, 'min': 988.5892305425091, 'max': 4932.049339410481}","{'avg': 1818.3425616701447, 'med': 1817.1497131845858, 'perc95': 2115.939796113352, 'min': 1291.1592818564166, 'max': 2411.236194838129}"
PlanD,"{'avg': 390.36953976595277, 'med': 381.125380436738, 'perc95': 1735.2493959053472, 'min': -2555.989223424136, 'max': 3536.755979070923}","{'avg': 2950.5265568970012, 'med': 2984.398440654908, 'perc95': 4260.509264262231, 'min': 488.5285127549241, 'max': 5523.503278109328}","{'avg': 1390.2618702576992, 'med': 1377.8967352965253, 'perc95': 1975.8953449997127, 'min': 65.23628958761674, 'max': 2538.257253148501}","{'avg': 2177.1166122322193, 'med': 2185.6356764334423, 'perc95': 2502.625006633421, 'min': 1562.3192280811338, 'max': 2719.57253482528}","{'avg': 494.3918794941016, 'med': 496.8456769664733, 'perc95': 751.9486775691339, 'min': -20.032332421533397, 'max': 976.8290682657755}","{'avg': 3025.75964530757, 'med': 3044.50330753989, 'perc95': 3916.8094878118436, 'min': 1301.0484342511586, 'max': 4589.66325990252}","{'avg': 451.20252480335586, 'med': 468.41738243058995, 'perc95': 1575.8110181224652, 'min': -1551.6710206056534, 'max': 2258.9993396900322}","{'avg': 1123.397669282394, 'med': 1122.002064483919, 'perc95': 2621.905512460363, 'min': -2443.000217486948, 'max': 4094.8234399919274}","{'avg': 261.45067487356033, 'med': 262.5234477297149, 'perc95': 358.9062911014599, 'min': 64.89269081825705, 'max': 433.1215568440557}","{'avg': 2626.7074161521323, 'med': 2618.054957519893, 'perc95': 4068.3372021688742, 'min': 412.3962062569235, 'max': 5435.126801232676}","{'avg': 1524.7565021052962, 'med': 1528.9345138555584, 'perc95': 1929.1170633445581, 'min': 763.7458732162985, 'max': 2259.8590433919107}","{'avg': 689.846462821258, 'med': 702.1250914086321, 'perc95': 1355.9284485115204, 'min': -955.6283894319673, 'max': 2135.820076100822}","{'avg': 1186.907291086245, 'med': 1165.3680868011497, 'perc95': 2658.8474609621267, 'min': -1218.3234570000222, 'max': 3817.3472884110683}","{'avg': 1482.6445855704533, 'med': 1487.4173496786036, 'perc95': 1847.8977656872307, 'min': 712.4281265773614, 'max': 2068.728444126168}","{'avg': 113.64130739420612, 'med': 82.0066305349589, 'perc95': 1125.443436727238, 'min': -1797.5865964693794, 'max': 1908.4083748879716}","{'avg': 910.9904836633038, 'med': 912.6799342913595, 'perc95': 1305.08093962802, 'min': 177.49126466166365, 'max': 1756.6473923745139}","{'avg': 58.86091809941836, 'med': 52.470090861788684, 'perc95': 896.2722261639016, 'min': -1457.6658553497512, 'max': 1853.2977379644321}","{'avg': 744.5673351996976, 'med': 709.7904796911494, 'perc95': 2288.762730063277, 'min': -2321.4203810331687, 'max': 3735.447949445853}","{'avg': 1311.0590187099988, 'med': 1324.8520888241987, 'perc95': 1982.8831639308687, 'min': 118.38505388951944, 'max': 2587.176723905338}","{'avg': 916.0727968166321, 'med': 883.3822955065808, 'perc95': 1791.8678579396178, 'min': -552.6260332145239, 'max': 2525.6049671872825}","{'avg': 2869.701116981199, 'med': 2871.7361277850373, 'perc95': 3009.3006054879743, 'min': 2591.787456304677, 'max': 3127.621062951305}","{'avg': 1713.6301601143603, 'med': 1702.5887536690595, 'perc95': 2598.567128672238, 'min': 142.52423556321855, 'max': 3245.5732759932407}","{'avg': 625.498792314608, 'med': 595.8097945891795, 'perc95': 2171.306484182543, 'min': -2376.933806885547, 'max': 3734.7004682457455}","{'avg': 2632.18725668223, 'med': 2630.312257344515, 'perc95': 2740.0516307841995, 'min': 2431.649069302001, 'max': 2821.172347372467}","{'avg': 130.34387825827204, 'med': 125.66783152158628, 'perc95': 602.0779295841913, 'min': -721.6746774269227, 'max': 1036.9908237472791}"
