Plan,KPI19,KPI13,KPI11,KPI25,KPI17,KPI1,KPI10,KPI2,KPI18,KPI22,KPI5,KPI8,KPI7,KPI23,KPI21,KPI3,KPI15,KPI24,KPI4,KPI14,KPI12,KPI6,KPI16,KPI9,KPI20
PlanA,"{'avg': 1732.931283237062, 'med': 1723.9228739847824, 'perc95': 2293.3586471596045, 'min': 740.2294506463787, 'max': 2654.4743247576366}","{'avg': 740.643511244387, 'med': 723.4143723292565, 'perc95': 1176.852918393136, 'min': 1.495205959454438, 'max': 1659.739486688035}","{'avg': 29.335681204531596, 'med': 34.42137421802906, 'perc95': 340.87566848407846, 'min': -569.1771956390976, 'max': 569.5461368829099}","{'avg': 805.6632353695782, 'med': 789.0704252405474, 'perc95': 1538.685830764436, 'min': -348.05557953922903, 'max': 2226.2793488232855}","{'avg': 2363.3777430947052, 'med': 2383.9559490034953, 'perc95': 2795.860373332645, 'min': 1565.7668656261617, 'max': 3283.676805192933}","{'avg': 543.3471706086459, 'med': 509.56375614731655, 'perc95': 1997.1547815602376, 'min': -2073.122439678554, 'max': 3335.3742438793397}","{'avg': 77.87041939982657, 'med': 90.26680570496751, 'perc95': 727.8182836998126, 'min': -1467.5008235016035, 'max': 1328.8581634564475}","{'avg': 2376.1119512055316, 'med': 2410.227469909786, 'perc95': 3416.660079022932, 'min': 482.57936838372757, 'max': 4189.762488736254}","{'avg': 2997.2176639419804, 'med': 2987.7709020377933, 'perc95': 4074.599587643134, 'min': 1383.9981801111476, 'max': 4748.886327044142}","{'avg': 459.1341654118957, 'med': 449.426267664391, 'perc95': 810.4571569438516, 'min': -120.62808013817568, 'max': 1293.3174982512896}","{'avg': 39.637199943774526, 'med': 53.8509576784079, 'perc95': 1399.2427453789514, 'min': -2717.7514081328804, 'max': 2449.2001991015063}","{'avg': 2418.0607523677786, 'med': 2405.215699980673, 'perc95': 3089.6050566001913, 'min': 1050.6943962030605, 'max': 3470.0606247226197}","{'avg': 486.65247863770526, 'med': 488.97159824264617, 'perc95': 624.610031710132, 'min': 273.84247592617737, 'max': 734.235225649736}","{'avg': 2414.240174760636, 'med': 2433.0180637416565, 'perc95': 3552.5887174519776, 'min': 526.2855533673635, 'max': 4793.433138854275}","{'avg': 2951.4945375625193, 'med': 2914.553024569813, 'perc95': 4026.982454246162, 'min': 1109.4064812010208, 'max': 4428.568087180307}","{'avg': 922.5830350061592, 'med': 933.424288381983, 'perc95': 1471.656272592698, 'min': -75.26848838138483, 'max': 1966.964662070142}","{'avg': 2420.103517090268, 'med': 2407.2255485417977, 'perc95': 3268.093672559182, 'min': 768.7085385722269, 'max': 3989.866259092809}","{'avg': 167.64717463823342, 'med': 161.83297998436964, 'perc95': 1800.5951803565679, 'min': -2556.986012265103, 'max': 2998.792802145513}","{'avg': 1902.4237439659942, 'med': 1899.3070980764762, 'perc95': 2720.425358571102, 'min': 597.3377098846461, 'max': 3403.5271317213146}","{'avg': 1944.4428958248313, 'med': 1951.9026552573168, 'perc95': 3317.9996171353223, 'min': -532.1050532536492, 'max': 4340.906992698869}","{'avg': 2762.595998080113, 'med': 2738.654954995542, 'perc95': 3688.2618678155523, 'min': 775.3350292099301, 'max': 4912.038255577779}","{'avg': 2615.466522668384, 'med': 2615.065109057737, 'perc95': 2800.9647079163315, 'min': 2315.838190363907, 'max': 3034.642929818538}","{'avg': 2782.0682870119554, 'med': 2791.1931669565784, 'perc95': 3821.4740432096523, 'min': 931.7013006893369, 'max': 4961.660093454143}","{'avg': 2800.3599040428194, 'med': 2802.8901033893158, 'perc95': 4037.6430055442243, 'min': 125.19990990503265, 'max': 5114.658620180106}","{'avg': 555.7930213480887, 'med': 548.0253154757055, 'perc95': 2119.9184387523674, 'min': -2238.177735588245, 'max': 3142.2445450080636}"
PlanB,"{'avg': 1665.7371317487734, 'med': 1664.125666216254, 'perc95': 2381.949230977394, 'min': 90.90166491667219, 'max': 2854.8437904312077}","{'avg': 1270.7603979466342, 'med': 1276.0190868255206, 'perc95': 1635.89176928209, 'min': 589.9826828204235, 'max': 2161.201927572158}","{'avg': 2525.9878996646494, 'med': 2531.9480173732277, 'perc95': 2863.808940702985, 'min': 1949.7536977779273, 'max': 3259.3151159738345}","{'avg': 2680.409399398718, 'med': 2665.137041745713, 'perc95': 4173.2307954603675, 'min': -148.9407392113303, 'max': 4972.632675727587}","{'avg': 2905.1733043838813, 'med': 2918.1623783892073, 'perc95': 3700.4569077690685, 'min': 1217.600763807237, 'max': 4362.0266342557525}","{'avg': 1517.9259253299301, 'med': 1520.009742808933, 'perc95': 2416.834158280386, 'min': -96.85758022501363, 'max': 2963.8898555484075}","{'avg': 2832.3356788035526, 'med': 2840.5915782118977, 'perc95': 3714.266259841801, 'min': 1021.2173838298779, 'max': 4816.184457573588}","{'avg': 161.03561561643724, 'med': 146.4433308187399, 'perc95': 1079.2503985758126, 'min': -1078.08210432814, 'max': 1545.5211819090875}","{'avg': 2179.979071321596, 'med': 2155.694606200712, 'perc95': 2653.226016580459, 'min': 1482.8783897358094, 'max': 2902.8431218046185}","{'avg': 2036.26700648075, 'med': 2045.0906074049872, 'perc95': 3040.7557397092337, 'min': -379.9265377038507, 'max': 4290.260906351909}","{'avg': 491.3055399461839, 'med': 475.41347492388155, 'perc95': 1651.6006077208058, 'min': -1684.7099612608768, 'max': 3410.2571381475036}","{'avg': 1098.2881059911251, 'med': 1097.3467169678156, 'perc95': 2499.4625572073337, 'min': -1947.6149070402782, 'max': 3978.1682327701164}","{'avg': 1212.3338576079414, 'med': 1205.9413876939593, 'perc95': 2293.2507681087463, 'min': -499.91920389797656, 'max': 3521.4212544568154}","{'avg': 824.401305558089, 'med': 829.5035335945606, 'perc95': 1814.728120356176, 'min': -930.6451923319593, 'max': 2837.679031094888}","{'avg': 590.3386229999248, 'med': 611.5645419472687, 'perc95': 1768.5069267722101, 'min': -1579.2898665798807, 'max': 2974.6286412705003}","{'avg': 2234.404915575418, 'med': 2249.56944820935, 'perc95': 3150.0475516732604, 'min': 731.3354929138188, 'max': 4015.8053107048418}","{'avg': 1266.7059874792928, 'med': 1277.5082830347749, 'perc95': 1702.4065049698443, 'min': 365.7006293094829, 'max': 2002.4131221938628}","{'avg': 59.06175140519759, 'med': 43.72185798596162, 'perc95': 1003.3275617265299, 'min': -1949.7461541560972, 'max': 1690.1681428697998}","{'avg': 2377.3204551722188, 'med': 2347.467612877723, 'perc95': 3402.720236889252, 'min': 133.20211803122038, 'max': 4388.269868845269}","{'avg': 1669.8044341987752, 'med': 1672.2793658396863, 'perc95': 2114.920628882834, 'min': 784.1322565598451, 'max': 2490.039527637153}","{'avg': 1289.8063530566117, 'med': 1290.2269271316338, 'perc95': 1857.4784496639886, 'min': 189.26229516618355, 'max': 2213.744306171718}","{'avg': 1824.295038538478, 'med': 1822.8402224318345, 'perc95': 1929.0659514232414, 'min': 1624.9808896985367, 'max': 2021.0764911951676}","{'avg': 1492.0113928040942, 'med': 1472.946372930885, 'perc95': 2744.3948495442637, 'min': -1063.0363103354782, 'max': 3738.6935226919277}","{'avg': 1648.377812137808, 'med': 1656.2176313722357, 'perc95': 2367.4504692975233, 'min': 241.6568669044127, 'max': 3156.9086864617466}","{'avg': 1893.674793838994, 'med': 1904.20983737013, 'perc95': 3015.674049322646, 'min': -111.6259840962548, 'max': 3727.2195523603186}"
PlanC,"{'avg': 1172.1808998143038, 'med': 1123.6767744325666, 'perc95': 2123.7357477461983, 'min': -511.39097599428715, 'max': 3037.7635562969945}","{'avg': 397.3779855392636, 'med': 410.6643000584765, 'perc95': 1483.3017834905431, 'min': -1298.3456421442615, 'max': 2300.3462721265923}","{'avg': 836.5994041869155, 'med': 827.2488311182192, 'perc95': 1170.211010839883, 'min': 171.82669120201604, 'max': 1621.9051442003274}","{'avg': 2346.951120517166, 'med': 2317.386353028845, 'perc95': 3504.459580159312, 'min': 116.56013186861992, 'max': 4196.692797464853}","{'avg': 2273.4065284599146, 'med': 2274.8677371868184, 'perc95': 2964.601216212579, 'min': 763.5203908498249, 'max': 3503.674280581602}","{'avg': 2758.093447552493, 'med': 2764.7230966014795, 'perc95': 3539.91342812684, 'min': 1151.548967404134, 'max': 4144.173708006246}","{'avg': 1468.0274290068912, 'med': 1457.2294261013133, 'perc95': 1925.0636730211072, 'min': 508.94768424048857, 'max': 2402.897153081291}","{'avg': 696.5270235718921, 'med': 694.3543374692281, 'perc95': 828.9320224102669, 'min': 477.1708750137959, 'max': 983.5558379860265}","{'avg': 2253.537620693692, 'med': 2248.112939847362, 'perc95': 3524.150397686857, 'min': 9.164781417181985, 'max': 4656.612983749435}","{'avg': 1705.3432428302797, 'med': 1705.4624522902234, 'perc95': 3084.6520288082856, 'min': -860.07273037862, 'max': 4611.857610795034}","{'avg': 2267.7130317819933, 'med': 2226.4763996330257, 'perc95': 4064.9325169987774, 'min': -381.3890485509528, 'max': 5553.484113052515}","{'avg': 764.8013436886421, 'med': 765.6013051367834, 'perc95': 1647.4608370567867, 'min': -622.2885696638981, 'max': 2515.1502130712192}","{'avg': 1774.440359028836, 'med': 1781.5667636250764, 'perc95': 2008.882135963002, 'min': 1284.4790291975255, 'max': 2239.3797046405316}","{'avg': 2620.025041648209, 'med': 2617.37450016488, 'perc95': 3104.513930330244, 'min': 1748.1788078074333, 'max': 3596.5558536739736}","{'avg': 91.67931955608216, 'med': 89.15415933502142, 'perc95': 820.5993142780654, 'min': -1242.2212429443719, 'max': 1873.2828519024954}","{'avg': 2355.1861558776095, 'med': 2355.9659348621685, 'perc95': 2510.1899076386944, 'min': 2049.9469236394616, 'max': 2631.0698167117916}","{'avg': 2891.8840942551196, 'med': 2890.175212266969, 'perc95': 2975.606485389204, 'min': 2735.213896252723, 'max': 3020.245744245311}","{'avg': 2118.8289206238696, 'med': 2129.7878441806483, 'perc95': 2502.435609243322, 'min': 1288.2468801339687, 'max': 2907.6278322217368}","{'avg': 839.7432906617365, 'med': 852.7289766128573, 'perc95': 1477.9940298878682, 'min': -642.028611598932, 'max': 2039.816446398785}","{'avg': 469.476662516651, 'med': 454.3656796816475, 'perc95': 1537.4200624573702, 'min': -1414.8478696834954, 'max': 2561.1100298565516}","{'avg': 2671.4177774211116, 'med': 2670.762085187252, 'perc95': 2925.312693124587, 'min': 2232.7864514682396, 'max': 3099.6712588731966}","{'avg': 2661.55473386183, 'med': 2641.43346822538, 'perc95': 3426.8756127614697, 'min': 1247.6469708258148, 'max': 4311.921830490704}","{'avg': 2535.4137629740057, 'med': 2519.699659446768, 'perc95': 3564.252469798689, 'min': 721.5177729707411, 'max': 4715.732721176522}","{'avg': 2912.5800375765657, 'med': 2909.0875504738847, 'perc95': 4279.673594715178, 'min': 563.3514313478445, 'max': 5857.418913305404}","{'avg': 1809.5279303114066, 'med': 1802.6927055682304, 'perc95': 2112.266987773876, 'min': 1130.9482071906723, 'max': 2534.661604027387}"
PlanD,"{'avg': 381.04418851382263, 'med': 381.8028284168523, 'perc95': 1640.7452092866752, 'min': -2071.5106029026592, 'max': 3124.340355418958}","{'avg': 2856.917863952111, 'med': 2808.2554213598128, 'perc95': 4153.967709663274, 'min': 438.33466816380724, 'max': 5331.43456063234}","{'avg': 1407.5659013609688, 'med': 1400.0589763784162, 'perc95': 2068.882286736146, 'min': 302.5144143172513, 'max': 2604.2396501149346}","{'avg': 2154.532985913499, 'med': 2151.851178809421, 'perc95': 2493.474951509892, 'min': 1640.6824423456692, 'max': 2778.255500162784}","{'avg': 508.7667256719923, 'med': 508.2175267829451, 'perc95': 780.8477637072192, 'min': -38.7408982812924, 'max': 1026.7496093604846}","{'avg': 2982.6484856559746, 'med': 2976.5670157372097, 'perc95': 3909.0084566664036, 'min': 1170.0047516461445, 'max': 4601.86208518945}","{'avg': 411.3754644992848, 'med': 422.70654852634465, 'perc95': 1497.4781580756355, 'min': -1545.6557786731757, 'max': 2339.108222440601}","{'avg': 1038.7377598403427, 'med': 1049.065601014908, 'perc95': 2642.4957643142084, 'min': -1944.290122922637, 'max': 3701.355021313384}","{'avg': 259.0518400450787, 'med': 260.38517383417434, 'perc95': 344.188708081634, 'min': 88.90439157054794, 'max': 425.1962480463461}","{'avg': 2571.5108919605846, 'med': 2568.210895461802, 'perc95': 3837.7592124178063, 'min': 490.5342743056931, 'max': 4591.047090728638}","{'avg': 1527.1218536954998, 'med': 1525.6888390708352, 'perc95': 1965.1672908877965, 'min': 711.1574226334798, 'max': 2359.710882858712}","{'avg': 662.1628519329678, 'med': 667.4892597218303, 'perc95': 1360.5245742810635, 'min': -1056.7489879421883, 'max': 1927.1580226904575}","{'avg': 1254.4699910880302, 'med': 1277.671950931195, 'perc95': 2575.3764530969206, 'min': -1045.7866369550557, 'max': 4043.5565206072497}","{'avg': 1484.4047948021996, 'med': 1498.427524652913, 'perc95': 1851.2828585437849, 'min': 821.8456449171207, 'max': 2280.6432481810093}","{'avg': 86.9325274210324, 'med': 71.34943324569983, 'perc95': 1083.5148683976513, 'min': -1882.8287107071624, 'max': 1881.4495099851997}","{'avg': 910.4319357580312, 'med': 907.6856500826802, 'perc95': 1345.9871423524942, 'min': -61.73963302920595, 'max': 1829.9477728704549}","{'avg': 55.17805001266149, 'med': 34.21608995710478, 'perc95': 870.1773182113391, 'min': -1534.4224514246746, 'max': 1622.2411178743268}","{'avg': 770.8419907326578, 'med': 741.7969169682061, 'perc95': 2277.3417140704596, 'min': -1663.4845612905078, 'max': 4080.4872655785357}","{'avg': 1278.4627092536584, 'med': 1252.6096695533643, 'perc95': 1933.4074627017167, 'min': -36.43954562768772, 'max': 2399.209177894632}","{'avg': 914.1580860404289, 'med': 923.0319754783145, 'perc95': 1805.5025354652985, 'min': -642.3407083928055, 'max': 2457.6841335350537}","{'avg': 2864.5924157287586, 'med': 2866.546510621958, 'perc95': 2994.281012767865, 'min': 2629.037124061813, 'max': 3167.7803740547033}","{'avg': 1683.0334038404153, 'med': 1675.8145759538468, 'perc95': 2584.98869221694, 'min': 215.09345559011126, 'max': 3028.0189396076557}","{'avg': 708.4029020142453, 'med': 741.2977015170202, 'perc95': 2209.533678169967, 'min': -1567.4775099036658, 'max': 3300.340765400927}","{'avg': 2629.2536277283098, 'med': 2626.874917580663, 'perc95': 2739.605175291763, 'min': 2411.8115804170634, 'max': 2807.228194936032}","{'avg': 118.46535806908162, 'med': 108.05664754257234, 'perc95': 625.5148994152112, 'min': -728.2956676798693, 'max': 1199.550634692685}"
