Plan,KPI19,KPI13,KPI11,KPI25,KPI17,KPI1,KPI10,KPI2,KPI18,KPI22,KPI5,KPI8,KPI7,KPI23,KPI21,KPI3,KPI15,KPI24,KPI4,KPI14,KPI12,KPI6,KPI16,KPI9,KPI20
PlanA,"{'avg': 1764.626693550532, 'med': 1753.3742938770793, 'perc95': 2341.827814685249, 'min': 672.8842790954207, 'max': 2851.8875038314536}","{'avg': 755.9289310469667, 'med': 752.1495438631433, 'perc95': 1164.7918544969586, 'min': 43.51983955371679, 'max': 1472.4244962173352}","{'avg': 21.667781940236782, 'med': 18.46006756428882, 'perc95': 369.5899050940343, 'min': -558.0994614413338, 'max': 682.0861231686362}","{'avg': 790.6596720241952, 'med': 768.574629185387, 'perc95': 1483.9515451333923, 'min': -527.472446876978, 'max': 2015.0981328642463}","{'avg': 2379.734320942752, 'med': 2382.0417434916626, 'perc95': 2798.175798716331, 'min': 1565.15783806831, 'max': 3139.514049474621}","{'avg': 522.2219392728149, 'med': 554.879787622598, 'perc95': 1870.3954198141066, 'min': -1789.787877866388, 'max': 3573.8122360020316}","{'avg': 51.298111663370584, 'med': 56.358203646146364, 'perc95': 683.4522691359222, 'min': -1368.3148968098153, 'max': 1166.947535980605}","{'avg': 2333.344641074843, 'med': 2293.8350713778723, 'perc95': 3325.392322000224, 'min': 660.4729748811412, 'max': 4204.277471775749}","{'avg': 2976.4966606238995, 'med': 2979.436316617524, 'perc95': 3938.365415540243, 'min': 947.2040555636333, 'max': 4943.437929873011}","{'avg': 466.64505736390345, 'med': 466.97162411256306, 'perc95': 822.7599927057405, 'min': -271.95583656568175, 'max': 1086.8245682115057}","{'avg': 91.23548966470396, 'med': 64.71245498347052, 'perc95': 1522.5292428542193, 'min': -2295.6385496648113, 'max': 3444.207058050067}","{'avg': 2412.9330881827914, 'med': 2399.3176286963667, 'perc95': 3084.19620353742, 'min': 1065.0439592256546, 'max': 3796.5459653838816}","{'avg': 494.7024616568393, 'med': 493.55918309074406, 'perc95': 619.1002955152301, 'min': 254.37374259090356, 'max': 751.803375723073}","{'avg': 2413.269002969959, 'med': 2421.0481605725336, 'perc95': 3580.6155491347736, 'min': 420.97319945152117, 'max': 4538.990614439047}","{'avg': 3010.7906329644675, 'med': 2996.144681944497, 'perc95': 4056.131792166562, 'min': 1205.1723350319974, 'max': 5437.877776225174}","{'avg': 924.1515107857331, 'med': 918.8370462321967, 'perc95': 1469.3399297256506, 'min': 78.10944514370283, 'max': 1947.9993574611926}","{'avg': 2459.732639857358, 'med': 2459.3628768993185, 'perc95': 3302.3218821627465, 'min': 1085.4676577186256, 'max': 4074.7058875015273}","{'avg': 259.50486691048087, 'med': 242.2682623411001, 'perc95': 1938.5517741147228, 'min': -2443.803663443509, 'max': 2970.093731853975}","{'avg': 1929.7948850007315, 'med': 1938.824412426887, 'perc95': 2648.7538309731613, 'min': 541.3927374793839, 'max': 3333.4465859825395}","{'avg': 1892.1304955712822, 'med': 1922.0662366334664, 'perc95': 3216.475965528252, 'min': -545.02740709096, 'max': 4240.2065076028475}","{'avg': 2778.852894589285, 'med': 2793.6431844687327, 'perc95': 3683.6326320836733, 'min': 1050.9233840884297, 'max': 4938.776160815765}","{'avg': 2613.9683123814993, 'med': 2611.879596829122, 'perc95': 2780.0620778674493, 'min': 2316.3273907814955, 'max': 2921.491062688673}","{'avg': 2818.7861591806763, 'med': 2792.0433593799316, 'perc95': 3840.397984466525, 'min': 501.82047558342265, 'max': 4907.256527828815}","{'avg': 2844.430733343862, 'med': 2834.41125955602, 'perc95': 4098.303489522779, 'min': 568.8824817002737, 'max': 5232.428041852532}","{'avg': 580.9103953824707, 'med': 603.1234054080901, 'perc95': 2139.8562296954237, 'min': -2248.498098676699, 'max': 3407.913011254127}"
PlanB,"{'avg': 1667.7084579004716, 'med': 1664.6749962442166, 'perc95': 2361.0477059641053, 'min': 349.2937405723326, 'max': 2940.618836936648}","{'avg': 1273.7068041844586, 'med': 1270.3175501416463, 'perc95': 1663.3964538568734, 'min': 542.8308884730772, 'max': 1972.23441453687}","{'avg': 2535.2232377863693, 'med': 2539.3725138851046, 'perc95': 2872.0906836421136, 'min': 1966.8804088051354, 'max': 3383.115273161359}","{'avg': 2717.1448919967884, 'med': 2750.7173253877554, 'perc95': 4186.365298098664, 'min': 621.2818166263312, 'max': 5503.169495167667}","{'avg': 2952.659227416557, 'med': 2948.578192417661, 'perc95': 3759.343525860676, 'min': 1131.1080405022255, 'max': 4378.914344931078}","{'avg': 1538.9394804336516, 'med': 1545.352268577964, 'perc95': 2393.3614643196743, 'min': -118.35712973525983, 'max': 3221.603047790397}","{'avg': 2856.5338175870834, 'med': 2841.7264508272974, 'perc95': 3817.5389237649397, 'min': 723.8953312515491, 'max': 4673.9178906069355}","{'avg': 181.6552484557835, 'med': 191.8502621485825, 'perc95': 1039.715772322294, 'min': -1652.4017229585033, 'max': 1474.0706920940108}","{'avg': 2159.0121071286685, 'med': 2164.586211916044, 'perc95': 2586.825425444186, 'min': 1308.1062430433167, 'max': 2899.7508682562384}","{'avg': 2025.8711638247755, 'med': 2032.8041479627382, 'perc95': 2964.6627095782596, 'min': -266.6262942102137, 'max': 4012.2416495504376}","{'avg': 492.28598386328633, 'med': 472.9265259962619, 'perc95': 1732.0892735295263, 'min': -1878.339046339906, 'max': 2460.578454117779}","{'avg': 1042.3654869009736, 'med': 1045.5540759339028, 'perc95': 2412.692307236825, 'min': -2351.0671101811977, 'max': 3396.6506449102108}","{'avg': 1202.40128763805, 'med': 1195.2218761877557, 'perc95': 2303.7920417262676, 'min': -1295.8599579616953, 'max': 3174.4628745121345}","{'avg': 853.7095626880824, 'med': 828.8576599690032, 'perc95': 1815.6365943202923, 'min': -780.1096615846169, 'max': 2652.3932996313606}","{'avg': 631.5629127271075, 'med': 612.8443281004176, 'perc95': 1807.5468026390893, 'min': -1560.105304086218, 'max': 2570.1772948050566}","{'avg': 2250.636847291002, 'med': 2235.0457144120287, 'perc95': 3233.252563276613, 'min': 669.4533611029628, 'max': 4044.734177990616}","{'avg': 1260.9634981112997, 'med': 1261.666921839824, 'perc95': 1683.4255497575443, 'min': 495.12614343851646, 'max': 1921.2829253289515}","{'avg': 77.40657979645457, 'med': 102.62860998822731, 'perc95': 1016.690033205035, 'min': -1648.9612913638875, 'max': 1641.2747670160115}","{'avg': 2417.8881196462376, 'med': 2417.916826231632, 'perc95': 3483.3511332080107, 'min': 568.7854999179428, 'max': 4384.6683964090025}","{'avg': 1691.2983907364708, 'med': 1693.2943807354711, 'perc95': 2160.226121273689, 'min': 846.6351823324312, 'max': 2723.9206517832545}","{'avg': 1303.0567897627907, 'med': 1289.2957708798513, 'perc95': 1882.1572793021114, 'min': 220.47365963364155, 'max': 2488.546701527586}","{'avg': 1826.5707379909877, 'med': 1826.2359624791425, 'perc95': 1922.8544154695196, 'min': 1672.4432269108183, 'max': 1997.4288323660824}","{'avg': 1480.9937866656796, 'med': 1459.4906370192778, 'perc95': 2792.053746430044, 'min': -918.9227471381148, 'max': 4518.435248601451}","{'avg': 1631.7809041704134, 'med': 1625.3603525680335, 'perc95': 2246.7341263218887, 'min': 459.8500171060009, 'max': 3114.7665684829185}","{'avg': 1847.0955656826247, 'med': 1832.1815817713295, 'perc95': 2933.491238941138, 'min': 101.27135227467829, 'max': 3868.353418998297}"
PlanC,"{'avg': 1155.6695824104238, 'med': 1153.5335829172664, 'perc95': 2091.699891595607, 'min': -774.8536569033542, 'max': 2841.221723183103}","{'avg': 394.83101153006834, 'med': 376.1840733682636, 'perc95': 1458.8231753640516, 'min': -1564.7380714987873, 'max': 2866.2704164946485}","{'avg': 832.1783851045836, 'med': 839.0447495960277, 'perc95': 1182.0279478694501, 'min': 261.23821064213314, 'max': 1416.780077303046}","{'avg': 2304.3309973213077, 'med': 2333.928483761561, 'perc95': 3362.126887577022, 'min': 83.58944619384602, 'max': 4000.0710891391345}","{'avg': 2309.6665710627362, 'med': 2309.025771884553, 'perc95': 3026.6157832262843, 'min': 672.4447230889937, 'max': 3490.4191419619547}","{'avg': 2778.281300395811, 'med': 2795.217490885553, 'perc95': 3640.306565446993, 'min': 1310.2476956841376, 'max': 4225.631817682424}","{'avg': 1439.474582700203, 'med': 1454.5093007985997, 'perc95': 1896.7241289781573, 'min': 507.239501759771, 'max': 2532.4754208082313}","{'avg': 704.6664090870087, 'med': 708.8294291059369, 'perc95': 838.8331053669522, 'min': 454.62531236187795, 'max': 1000.2003625642504}","{'avg': 2238.7378617403056, 'med': 2256.2049913928736, 'perc95': 3502.142538272472, 'min': -178.50685913897723, 'max': 4566.363812476612}","{'avg': 1739.724727557273, 'med': 1757.6216178274124, 'perc95': 2948.877804962578, 'min': -666.45680292047, 'max': 4194.286780136651}","{'avg': 2153.0548985368373, 'med': 2091.2006203204232, 'perc95': 3699.7122757684792, 'min': -1407.9877119198559, 'max': 4980.928773426505}","{'avg': 784.5002401690516, 'med': 794.3286203549022, 'perc95': 1630.9559927298624, 'min': -603.8671994522196, 'max': 2661.155096198777}","{'avg': 1764.548326634669, 'med': 1760.6637869436233, 'perc95': 2027.607934539049, 'min': 1283.0518511118216, 'max': 2293.7403492662597}","{'avg': 2606.174724657627, 'med': 2623.677600777205, 'perc95': 3035.817089465983, 'min': 1789.8960822842248, 'max': 3425.390643223242}","{'avg': 63.88358946864384, 'med': 57.02263995431798, 'perc95': 761.2696891697562, 'min': -1433.0864403858347, 'max': 1329.6812017949744}","{'avg': 2349.92012203787, 'med': 2349.2219227677333, 'perc95': 2499.6523695482506, 'min': 2108.6101527219903, 'max': 2645.157904168773}","{'avg': 2892.8399373268517, 'med': 2893.055394726024, 'perc95': 2984.004070415337, 'min': 2747.4203421826073, 'max': 3055.069354494399}","{'avg': 2094.397789110978, 'med': 2102.4819476966845, 'perc95': 2484.3140272052046, 'min': 1345.843986978542, 'max': 2923.4421748012137}","{'avg': 869.8300260908165, 'med': 879.3564417101587, 'perc95': 1542.4128925238283, 'min': -521.7891007358178, 'max': 2177.9093683496135}","{'avg': 449.3094747099738, 'med': 461.684576567538, 'perc95': 1487.500093328451, 'min': -1573.8942551571442, 'max': 2538.6426275436615}","{'avg': 2675.9920765075785, 'med': 2676.5397109426813, 'perc95': 2933.5904559931478, 'min': 2211.823333433678, 'max': 3087.8161298063596}","{'avg': 2672.885519091217, 'med': 2680.1470078020384, 'perc95': 3393.8809838435504, 'min': 1179.4165319111285, 'max': 4341.540721597374}","{'avg': 2575.9000699319936, 'med': 2605.970642623895, 'perc95': 3540.4426918860445, 'min': 724.6958504703684, 'max': 4232.995916162401}","{'avg': 2960.926120604391, 'med': 2951.82655611592, 'perc95': 4280.343065467787, 'min': -179.64795071275284, 'max': 6717.503598094683}","{'avg': 1807.9384715735323, 'med': 1814.383380868999, 'perc95': 2112.9019152475566, 'min': 1143.7650827008683, 'max': 2525.9680504481425}"
PlanD,"{'avg': 379.56340391303337, 'med': 393.5911813316183, 'perc95': 1696.476684165661, 'min': -2331.6519776612777, 'max': 2585.08668111084}","{'avg': 2961.5535811226077, 'med': 2948.560628048701, 'perc95': 4252.284421312621, 'min': 148.45243611504748, 'max': 6227.730625088885}","{'avg': 1402.072149868394, 'med': 1425.067175301366, 'perc95': 1960.345291577321, 'min': 332.13592706550594, 'max': 2662.1076723074934}","{'avg': 2149.4625376952845, 'med': 2162.669265136341, 'perc95': 2475.2384879769043, 'min': 1601.4446321056384, 'max': 2742.697760415601}","{'avg': 499.8602221649118, 'med': 495.3341513084074, 'perc95': 764.0650326785179, 'min': -53.433888185885166, 'max': 1015.890967195644}","{'avg': 2965.8754872165214, 'med': 2955.849722118941, 'perc95': 3925.340464414312, 'min': 1243.1713491608423, 'max': 4423.009833842459}","{'avg': 405.41511755825405, 'med': 414.50314778048585, 'perc95': 1432.5256028023323, 'min': -1731.8490730417363, 'max': 2366.7177750568617}","{'avg': 1085.1963490864857, 'med': 1127.6030524659343, 'perc95': 2642.6759234266424, 'min': -2122.034993488657, 'max': 4260.091023561557}","{'avg': 260.22112884926577, 'med': 262.45138835219916, 'perc95': 352.33504462829796, 'min': 85.47411691549016, 'max': 447.27365111464445}","{'avg': 2599.5127811151942, 'med': 2595.2989777405264, 'perc95': 4024.549919226477, 'min': -77.66568021888816, 'max': 5279.442693391011}","{'avg': 1495.885814104841, 'med': 1512.7162111840532, 'perc95': 1932.2555863030914, 'min': 638.9128378146519, 'max': 2252.8475924707673}","{'avg': 660.9138090312358, 'med': 643.6801291449685, 'perc95': 1411.9877830666373, 'min': -774.4949243396749, 'max': 2100.1971735358916}","{'avg': 1256.8594689041022, 'med': 1219.3820220247017, 'perc95': 2684.207708961464, 'min': -1230.4159615517833, 'max': 3775.424871300528}","{'avg': 1476.0006995722551, 'med': 1470.3469816946167, 'perc95': 1833.88151676188, 'min': 860.4901556164707, 'max': 2136.8786326591603}","{'avg': 98.02933637919736, 'med': 81.39689475252125, 'perc95': 1149.9906907987138, 'min': -1592.7955829729099, 'max': 1917.6015283992451}","{'avg': 903.622934973509, 'med': 911.2175049252472, 'perc95': 1333.1640400461538, 'min': 146.70034504871956, 'max': 1972.869111870204}","{'avg': 12.009740894243999, 'med': 19.096727243527837, 'perc95': 834.0166699627871, 'min': -1481.0848065376708, 'max': 1636.2404281392246}","{'avg': 829.5920460373585, 'med': 814.0114503775077, 'perc95': 2333.437244137761, 'min': -1693.470047317091, 'max': 3866.354637995602}","{'avg': 1323.6339080666557, 'med': 1339.3125241192124, 'perc95': 1957.600745432259, 'min': 244.67777493724384, 'max': 2747.7479031156336}","{'avg': 936.6608415645377, 'med': 933.8499258497679, 'perc95': 1784.3383339879974, 'min': -641.6578274359813, 'max': 2456.6477357501008}","{'avg': 2873.9347338874186, 'med': 2875.82782001108, 'perc95': 3015.014562837694, 'min': 2612.7746373034165, 'max': 3142.217011123428}","{'avg': 1740.4983674786604, 'med': 1733.5135426378217, 'perc95': 2674.4825695535565, 'min': 205.6530329799357, 'max': 3352.17187216655}","{'avg': 740.1370605388987, 'med': 703.2461819150785, 'perc95': 2242.9594903058724, 'min': -1890.6772021585332, 'max': 3567.831202194351}","{'avg': 2632.898261289902, 'med': 2630.548637810736, 'perc95': 2740.822951444099, 'min': 2447.133575269647, 'max': 2817.036359364309}","{'avg': 141.48756642677955, 'med': 132.91869500309733, 'perc95': 626.9432460996344, 'min': -800.9567599166054, 'max': 1120.4665643648036}"
