Plan,KPI19,KPI13,KPI11,KPI25,KPI17,KPI1,KPI10,KPI2,KPI18,KPI22,KPI5,KPI8,KPI7,KPI23,KPI21,KPI3,KPI15,KPI24,KPI4,KPI14,KPI12,KPI6,KPI16,KPI9,KPI20
PlanA,"{'avg': 1758.7825892817739, 'med': 1743.078752832304, 'perc95': 2345.555664044461, 'min': 775.7327017132427, 'max': 2790.2873818008293}","{'avg': 750.92587522784, 'med': 745.979624640421, 'perc95': 1120.8940178662624, 'min': 210.9634875417936, 'max': 1444.6730589405352}","{'avg': 38.283001613078106, 'med': 36.76520867812579, 'perc95': 365.1036391689628, 'min': -567.7226240114054, 'max': 726.069929517105}","{'avg': 801.0287403880437, 'med': 820.4457511387235, 'perc95': 1489.2506628480405, 'min': -391.274949636045, 'max': 1869.031004765267}","{'avg': 2358.131703140681, 'med': 2372.587428408209, 'perc95': 2779.726613501928, 'min': 1609.406260022643, 'max': 3096.8054516995853}","{'avg': 499.26146140895924, 'med': 490.3383581428881, 'perc95': 1874.6136944894326, 'min': -1900.379655668527, 'max': 3259.233490138898}","{'avg': 37.17789520400809, 'med': 19.348988405858833, 'perc95': 754.0426128411864, 'min': -1245.359819035832, 'max': 1529.2103351265503}","{'avg': 2356.3061297807462, 'med': 2351.227973867415, 'perc95': 3489.6766384959656, 'min': 353.5490958723019, 'max': 4479.523796641129}","{'avg': 2950.709891429477, 'med': 2915.582181795116, 'perc95': 4075.745327178909, 'min': 1273.8707885051192, 'max': 5180.866664123145}","{'avg': 465.496871681797, 'med': 467.87573430293276, 'perc95': 839.1843446532519, 'min': -262.6794606982035, 'max': 1112.9049749839205}","{'avg': 25.658511053452997, 'med': 41.62423781296205, 'perc95': 1288.4555456092482, 'min': -2506.6757115072205, 'max': 2832.678814687184}","{'avg': 2422.1790193781253, 'med': 2413.055773711028, 'perc95': 3086.38025827615, 'min': 1294.6502496036594, 'max': 3622.9538379585765}","{'avg': 490.2362792652057, 'med': 490.4398348803788, 'perc95': 620.4357204681633, 'min': 171.40711312956654, 'max': 720.0414392945596}","{'avg': 2393.8744459006234, 'med': 2424.6982585835854, 'perc95': 3511.3855002114237, 'min': 355.30795453883593, 'max': 4426.2035503671295}","{'avg': 2967.7125406039386, 'med': 3006.9701229300317, 'perc95': 4087.8476670032915, 'min': 456.593671282164, 'max': 5002.681553413233}","{'avg': 914.8159540629053, 'med': 936.42170962911, 'perc95': 1402.8220217240391, 'min': -485.8668480213273, 'max': 1965.1119175037175}","{'avg': 2427.3435156867067, 'med': 2421.9757148956364, 'perc95': 3235.366715908757, 'min': 512.7380223036475, 'max': 4039.245759940598}","{'avg': 211.78625278897175, 'med': 211.87970394157085, 'perc95': 1891.4363724980158, 'min': -3207.325140082242, 'max': 2818.437603955667}","{'avg': 1933.4849424042231, 'med': 1928.0712067269214, 'perc95': 2718.1553251072332, 'min': 703.2007449755315, 'max': 3170.7230783550094}","{'avg': 1877.031291791706, 'med': 1871.507077320015, 'perc95': 3083.9748557243847, 'min': -472.23520497137497, 'max': 4501.288970757932}","{'avg': 2737.1832345922594, 'med': 2749.808101567788, 'perc95': 3705.2721332606106, 'min': 752.9745327939711, 'max': 4479.46948354696}","{'avg': 2611.2829729048954, 'med': 2610.6375260927903, 'perc95': 2795.2800715898793, 'min': 2205.320982274498, 'max': 2978.8936826147146}","{'avg': 2795.9678381400386, 'med': 2813.517309959962, 'perc95': 3853.513295329454, 'min': 873.2451194059429, 'max': 4571.170864195589}","{'avg': 2785.638574668996, 'med': 2775.512311132093, 'perc95': 4107.074471541317, 'min': 642.3846660594868, 'max': 5190.333243561901}","{'avg': 603.1087163864848, 'med': 566.3686670515453, 'perc95': 2131.8404236105816, 'min': -1996.695648727653, 'max': 3215.352384853585}"
PlanB,"{'avg': 1678.3680005419199, 'med': 1668.288618771435, 'perc95': 2372.4456440958843, 'min': 96.24375319552405, 'max': 2952.7145755811616}","{'avg': 1273.362690796816, 'med': 1275.8692841196803, 'perc95': 1635.7105201863637, 'min': 430.1221012077083, 'max': 1921.405769257827}","{'avg': 2530.151943245679, 'med': 2529.044828955362, 'perc95': 2880.301508183268, 'min': 1690.064173982957, 'max': 3098.150098825031}","{'avg': 2669.9027392927023, 'med': 2695.3773698946375, 'perc95': 4038.367780100238, 'min': 123.51197134895074, 'max': 5015.0196443435}","{'avg': 2922.9628983029293, 'med': 2893.0669328712684, 'perc95': 3755.534074124771, 'min': 1312.694292338461, 'max': 4864.722527326439}","{'avg': 1504.1668674101138, 'med': 1508.636801648966, 'perc95': 2400.836143198926, 'min': -1.7275049539030078, 'max': 3128.9722622672903}","{'avg': 2869.612344172949, 'med': 2864.4962129349624, 'perc95': 3793.2677516550384, 'min': 1088.2318520831539, 'max': 5375.389563005723}","{'avg': 186.26105202306363, 'med': 201.0832424737814, 'perc95': 1000.938130469062, 'min': -1167.5938788399792, 'max': 1497.5275068483618}","{'avg': 2173.381914129435, 'med': 2171.449713948483, 'perc95': 2604.8243953619076, 'min': 1218.3246245941755, 'max': 3092.739533530129}","{'avg': 2058.929551415931, 'med': 2059.204533782315, 'perc95': 3182.547098894096, 'min': 329.7508602860041, 'max': 3988.988050958066}","{'avg': 465.1960936473215, 'med': 467.5437125139613, 'perc95': 1730.930222578565, 'min': -2199.7979959582144, 'max': 3141.813887795402}","{'avg': 1029.8411694337171, 'med': 1039.4394226304398, 'perc95': 2456.732527005254, 'min': -1340.2513833280498, 'max': 3321.3638340895486}","{'avg': 1173.6596364867055, 'med': 1176.704966326366, 'perc95': 2318.0533583022975, 'min': -1039.8161537521896, 'max': 3170.6153669913588}","{'avg': 809.9004787255457, 'med': 803.4632840097977, 'perc95': 1809.604562246688, 'min': -842.9237190388907, 'max': 2522.3997237330505}","{'avg': 669.7150525089498, 'med': 677.1886849312264, 'perc95': 1799.8525106846628, 'min': -1881.5488361366292, 'max': 3633.5222301269655}","{'avg': 2254.535511705742, 'med': 2245.136193558525, 'perc95': 3106.1748053772835, 'min': 415.30565371430316, 'max': 3971.3280766746248}","{'avg': 1269.1426640426655, 'med': 1279.5596744225595, 'perc95': 1679.1888575693063, 'min': 285.2928333918636, 'max': 1927.5091371239132}","{'avg': 43.965584379001385, 'med': 35.62192874374621, 'perc95': 926.8645496256389, 'min': -1573.3315415005497, 'max': 1746.71787805995}","{'avg': 2442.7653249387918, 'med': 2453.092893877563, 'perc95': 3424.6795201776117, 'min': 160.87204202939301, 'max': 4150.47455229396}","{'avg': 1692.3639182888842, 'med': 1688.4619877854195, 'perc95': 2134.709516282448, 'min': 791.8698342793994, 'max': 2490.994486847492}","{'avg': 1333.9399085365108, 'med': 1336.3056321826398, 'perc95': 1891.1589847710088, 'min': 388.08599823650127, 'max': 2442.74480914875}","{'avg': 1829.6841834359204, 'med': 1828.125873934944, 'perc95': 1927.572144692425, 'min': 1645.3120448367483, 'max': 2014.867002335265}","{'avg': 1468.0214715545471, 'med': 1448.5688680445073, 'perc95': 2680.5813584261423, 'min': -960.9309354973395, 'max': 4091.059512948924}","{'avg': 1632.4180225110863, 'med': 1635.1347558599634, 'perc95': 2333.0268891747155, 'min': 88.93289724235024, 'max': 2749.91590721939}","{'avg': 1862.8635080022482, 'med': 1863.7830968953326, 'perc95': 3048.7746218784387, 'min': -489.95604255782496, 'max': 4149.852327148044}"
PlanC,"{'avg': 1175.2462281919827, 'med': 1189.2577719841581, 'perc95': 2184.811261543816, 'min': -798.0346156326257, 'max': 2942.4877505337945}","{'avg': 419.08469930842654, 'med': 436.41436878578617, 'perc95': 1451.3090470603286, 'min': -1560.654057062913, 'max': 2913.892301686079}","{'avg': 851.2467746684173, 'med': 842.7786632801949, 'perc95': 1217.8587560804635, 'min': 246.77523630317864, 'max': 1502.3046257823844}","{'avg': 2314.6720402221663, 'med': 2340.3785147226463, 'perc95': 3410.7558067284776, 'min': -149.00922964670963, 'max': 4318.077398240686}","{'avg': 2308.99632341463, 'med': 2315.1199207711074, 'perc95': 3052.672255400521, 'min': 970.5335195712792, 'max': 3803.0732850157465}","{'avg': 2749.786971949608, 'med': 2780.547409026214, 'perc95': 3627.989397750597, 'min': 1232.9235780045867, 'max': 4236.126285183482}","{'avg': 1452.9957410663906, 'med': 1445.6959089075237, 'perc95': 1885.6890423291818, 'min': 523.0061953950561, 'max': 2451.3051368798747}","{'avg': 706.2579890672907, 'med': 703.9515753600892, 'perc95': 840.1160425277683, 'min': 392.7021402570623, 'max': 946.2657880112602}","{'avg': 2189.0128509344117, 'med': 2210.9160528600614, 'perc95': 3367.434632897679, 'min': -428.08102875908617, 'max': 4305.300988851018}","{'avg': 1724.3736984452455, 'med': 1703.5390989872008, 'perc95': 3097.400170893214, 'min': -894.2872573019547, 'max': 4248.020344443241}","{'avg': 2145.125053025838, 'med': 2176.0493254718576, 'perc95': 3747.3881656417875, 'min': -1171.0694262868155, 'max': 5128.347813300558}","{'avg': 747.596819159674, 'med': 738.387821582066, 'perc95': 1606.8194361998524, 'min': -894.3346007293034, 'max': 2487.0609812604152}","{'avg': 1777.9912146626637, 'med': 1769.2945687091244, 'perc95': 2031.2132977294832, 'min': 1343.362464027502, 'max': 2243.8870292889533}","{'avg': 2598.9033256002085, 'med': 2603.256860172007, 'perc95': 3057.7078774614074, 'min': 1825.9702203302688, 'max': 3578.6589950942207}","{'avg': 80.70697649498989, 'med': 74.54453859055317, 'perc95': 795.0760159851519, 'min': -1102.0918596909344, 'max': 1692.6440409841232}","{'avg': 2353.4016602348706, 'med': 2355.900297140425, 'perc95': 2509.658114477641, 'min': 2093.4877500611556, 'max': 2739.6652768083427}","{'avg': 2890.5918040189836, 'med': 2890.1617413953745, 'perc95': 2976.256969195515, 'min': 2713.4901158964985, 'max': 3036.7914874190815}","{'avg': 2107.501300713398, 'med': 2112.288800407505, 'perc95': 2503.2653679315836, 'min': 1306.1684806214116, 'max': 2852.8854977296096}","{'avg': 848.694222638818, 'med': 854.3529247324981, 'perc95': 1444.884464182117, 'min': -631.0706516202586, 'max': 1980.0915597283658}","{'avg': 463.6912733372767, 'med': 435.48654597718553, 'perc95': 1419.719410609001, 'min': -1447.5632734114206, 'max': 2085.8628269556793}","{'avg': 2675.5993168707682, 'med': 2675.3024034892737, 'perc95': 2921.1588074805163, 'min': 2147.6847190533163, 'max': 3100.1801906854594}","{'avg': 2687.2854198030077, 'med': 2668.9695161489603, 'perc95': 3441.456011462309, 'min': 1425.0545146056263, 'max': 4165.150360969251}","{'avg': 2535.9992954637964, 'med': 2549.5894836074676, 'perc95': 3461.169219360061, 'min': 999.1827192476924, 'max': 4408.499570071004}","{'avg': 2925.8474989192146, 'med': 2906.2447544658153, 'perc95': 4262.508972520035, 'min': 446.6651866050238, 'max': 6001.2177620286275}","{'avg': 1804.6098156041153, 'med': 1806.2342852555582, 'perc95': 2129.643537399826, 'min': 1216.9494964186028, 'max': 2410.696133296862}"
PlanD,"{'avg': 413.3265125679164, 'med': 413.2316199801243, 'perc95': 1729.487286390401, 'min': -2029.5971780722682, 'max': 2910.4624913944344}","{'avg': 2919.7142041117877, 'med': 2904.6552874904496, 'perc95': 4315.146765279655, 'min': 138.99758788731333, 'max': 5944.844271253463}","{'avg': 1404.2308994552523, 'med': 1413.616818498439, 'perc95': 2082.366280976792, 'min': 173.64328296644953, 'max': 2383.128594616533}","{'avg': 2150.1207063089137, 'med': 2150.3000025078372, 'perc95': 2484.0034079159036, 'min': 1538.1683542384683, 'max': 2765.0183135500765}","{'avg': 497.18096469690437, 'med': 491.7048931867963, 'perc95': 779.6712043258044, 'min': -34.00683730723108, 'max': 1078.611584060857}","{'avg': 3007.101718918976, 'med': 3001.6217223752005, 'perc95': 3932.576635292974, 'min': 1204.1957279796686, 'max': 4700.408324038327}","{'avg': 393.22902360286275, 'med': 425.57068795703213, 'perc95': 1360.8020156940047, 'min': -1983.7853898804221, 'max': 2534.3682273042205}","{'avg': 1101.4656417678702, 'med': 1104.3760483007902, 'perc95': 2518.404003651236, 'min': -1428.4748163624179, 'max': 3729.4399428783663}","{'avg': 260.7065930888594, 'med': 262.26188010720017, 'perc95': 356.70932292069915, 'min': 65.43756106528008, 'max': 446.2619885341136}","{'avg': 2682.327893070256, 'med': 2700.659481903591, 'perc95': 4010.0451401902255, 'min': -237.13499825344343, 'max': 4984.857562097621}","{'avg': 1539.8730702948012, 'med': 1546.0932685756818, 'perc95': 1920.4992735537007, 'min': 728.7696401286244, 'max': 2487.1683378697976}","{'avg': 692.6094907330057, 'med': 704.46748832005, 'perc95': 1421.2056742564928, 'min': -559.9743859198612, 'max': 1865.0187512022217}","{'avg': 1174.5356464517627, 'med': 1178.7796790472557, 'perc95': 2532.3726424591805, 'min': -1741.7589265335832, 'max': 3539.9041618048786}","{'avg': 1466.347677731325, 'med': 1458.994156081261, 'perc95': 1807.216492055375, 'min': 884.487005659045, 'max': 2035.2758625763659}","{'avg': 53.967296298353276, 'med': 60.3564582385073, 'perc95': 1111.4791809198464, 'min': -1799.2897648132252, 'max': 1697.0972742493354}","{'avg': 907.5411433136733, 'med': 894.4954672234081, 'perc95': 1334.2249393460943, 'min': 179.61471518070493, 'max': 1834.2694511791728}","{'avg': 91.27271238762486, 'med': 107.35617480977545, 'perc95': 905.1328344067348, 'min': -1376.4648301108468, 'max': 2022.8402057794146}","{'avg': 728.8446665788679, 'med': 724.0520207668013, 'perc95': 2184.1460445299963, 'min': -1972.8173480075407, 'max': 3380.0070507864643}","{'avg': 1326.6800342359677, 'med': 1319.4433082374935, 'perc95': 1939.8671389015376, 'min': 135.4823000618294, 'max': 2376.0436948546776}","{'avg': 961.7099353512803, 'med': 988.4054805009679, 'perc95': 1771.4368273574842, 'min': -621.7530400510925, 'max': 2437.052449205822}","{'avg': 2870.197189704696, 'med': 2873.025976316832, 'perc95': 3006.7492638242484, 'min': 2627.975538466456, 'max': 3071.4594359597972}","{'avg': 1720.464742289381, 'med': 1709.5463889715008, 'perc95': 2702.8593347985766, 'min': 308.3847761623106, 'max': 3409.1578397333524}","{'avg': 719.3790901909144, 'med': 719.8772054064113, 'perc95': 2245.05556595473, 'min': -2324.848543681397, 'max': 3304.537805219332}","{'avg': 2629.7998777941543, 'med': 2630.306020485543, 'perc95': 2732.3628556454205, 'min': 2427.1480545109453, 'max': 2836.5626608879643}","{'avg': 116.18522846008182, 'med': 123.89110611392884, 'perc95': 592.0325640222195, 'min': -746.6927455825672, 'max': 1066.6922815718221}"
