Plan,KPI19,KPI13,KPI11,KPI25,KPI17,KPI1,KPI10,KPI2,KPI18,KPI22,KPI5,KPI8,KPI7,KPI23,KPI21,KPI3,KPI15,KPI24,KPI4,KPI14,KPI12,KPI6,KPI16,KPI9,KPI20
PlanA,"{'avg': 1750.9917511410385, 'med': 1743.4744150531717, 'perc95': 2302.6699694571116, 'min': 703.2775616884317, 'max': 2818.532374401131}","{'avg': 739.8955740009775, 'med': 735.9729967407857, 'perc95': 1135.7652688192038, 'min': 166.1202932719441, 'max': 1477.736603685245}","{'avg': 21.45958294396333, 'med': 12.225450515520407, 'perc95': 362.87737162943336, 'min': -527.9258621959226, 'max': 643.3179377469917}","{'avg': 803.0326067832399, 'med': 769.4030231853318, 'perc95': 1542.3737006561757, 'min': -321.40942858344283, 'max': 2335.8167444824626}","{'avg': 2365.429069894202, 'med': 2353.9834502210942, 'perc95': 2802.951291397556, 'min': 1408.9709096087468, 'max': 3326.2485431922423}","{'avg': 520.4059570022597, 'med': 540.1574965967769, 'perc95': 1914.7723909446806, 'min': -2407.415233019831, 'max': 2925.2612826184522}","{'avg': 62.75937367758933, 'med': 62.84770513820847, 'perc95': 748.7282085035256, 'min': -1048.93047411203, 'max': 1146.1226730604099}","{'avg': 2367.2120247422013, 'med': 2345.214692412314, 'perc95': 3469.015382823388, 'min': 276.8943628861971, 'max': 4215.816089707991}","{'avg': 2980.693385164512, 'med': 2956.8667787508707, 'perc95': 4074.093895192359, 'min': 976.4107454135176, 'max': 4821.417135004529}","{'avg': 468.46780386139204, 'med': 456.7962081805362, 'perc95': 803.3128983450714, 'min': -289.5970503759899, 'max': 1160.8001272466668}","{'avg': 74.12285592048678, 'med': 31.69038190887786, 'perc95': 1554.926928927985, 'min': -2617.8659347213056, 'max': 2483.4309667455555}","{'avg': 2408.580769054936, 'med': 2415.968195948507, 'perc95': 3081.052351677474, 'min': 1057.3372475374658, 'max': 3594.656363793034}","{'avg': 491.4970075757128, 'med': 494.76064396912034, 'perc95': 617.687683309196, 'min': 248.79454992697677, 'max': 749.9680628271904}","{'avg': 2410.3128994763592, 'med': 2444.789957580328, 'perc95': 3461.0821574543606, 'min': 340.70173059382887, 'max': 4273.158480214974}","{'avg': 2936.05544030673, 'med': 2964.8213816302555, 'perc95': 4043.8601377677237, 'min': 553.5526337072843, 'max': 4984.802445581426}","{'avg': 915.4271692350624, 'med': 916.3811467405536, 'perc95': 1460.1296683149662, 'min': 4.410355262016651, 'max': 1889.4151335091246}","{'avg': 2449.1655370685867, 'med': 2431.2571942808117, 'perc95': 3324.9530064316914, 'min': 839.188043717148, 'max': 3941.9275773624813}","{'avg': 174.0039907406231, 'med': 201.3408933190842, 'perc95': 1764.777292893269, 'min': -2765.1706086761264, 'max': 3161.8599345395287}","{'avg': 1919.1697160861393, 'med': 1916.5197738727245, 'perc95': 2711.2871494478895, 'min': 594.8788908821598, 'max': 3366.6072450569422}","{'avg': 1952.7124766400607, 'med': 1954.6963580760694, 'perc95': 3245.458902417131, 'min': -126.77301317615684, 'max': 4352.31005057507}","{'avg': 2677.195002658335, 'med': 2684.916611908687, 'perc95': 3593.6494804707377, 'min': 790.5731934150404, 'max': 4398.545165744736}","{'avg': 2611.81091484621, 'med': 2605.6721312231075, 'perc95': 2798.6156356131232, 'min': 2223.4839464191627, 'max': 2920.3518007073717}","{'avg': 2842.192457155071, 'med': 2844.0451004788615, 'perc95': 3851.2107600992076, 'min': 1144.8404669853512, 'max': 4851.790196405995}","{'avg': 2804.080283714603, 'med': 2822.4336227897847, 'perc95': 4029.822288381337, 'min': 516.2410236351252, 'max': 5384.183818160291}","{'avg': 622.4882819656069, 'med': 641.9025165208185, 'perc95': 2098.5516332754914, 'min': -1974.804312925874, 'max': 3667.942174480787}"
PlanB,"{'avg': 1672.5380802725492, 'med': 1657.2301920772825, 'perc95': 2421.4411396986084, 'min': 468.85505003377966, 'max': 3326.0591553606428}","{'avg': 1265.4765311747249, 'med': 1266.4757609410392, 'perc95': 1648.5752582508649, 'min': 573.7295197210276, 'max': 1993.0288558910443}","{'avg': 2540.107129341324, 'med': 2539.8053368030182, 'perc95': 2864.4725740481135, 'min': 1966.865768639949, 'max': 3077.650656154249}","{'avg': 2615.076551934707, 'med': 2618.106740278559, 'perc95': 4055.965342443491, 'min': 141.4732851084018, 'max': 4965.716438471523}","{'avg': 2935.7670165705586, 'med': 2937.3835585000397, 'perc95': 3765.447277822675, 'min': 1303.0251466414584, 'max': 4387.597550047512}","{'avg': 1505.639915190181, 'med': 1508.2055877497637, 'perc95': 2378.4207259951363, 'min': -85.9654203669736, 'max': 3395.1199937155425}","{'avg': 2828.9704506170638, 'med': 2836.6221647653842, 'perc95': 3828.879400269238, 'min': 795.0098410811115, 'max': 4606.910390595801}","{'avg': 171.3102892388983, 'med': 157.54298520394266, 'perc95': 1102.596168785301, 'min': -1351.9046022384625, 'max': 2158.038547413234}","{'avg': 2187.5462146357336, 'med': 2186.4009374214165, 'perc95': 2599.1625646257844, 'min': 1378.245611013463, 'max': 2929.8890739073477}","{'avg': 2064.337667330087, 'med': 2054.563588795774, 'perc95': 3136.935113625993, 'min': 165.81231260588333, 'max': 3881.620093361447}","{'avg': 549.1085730678986, 'med': 526.6324161487953, 'perc95': 1795.6379044513442, 'min': -1887.6750231186174, 'max': 2834.8391681993944}","{'avg': 1073.449931529464, 'med': 1054.0599167870016, 'perc95': 2477.0038543847168, 'min': -2353.9910754226594, 'max': 4029.3885792497613}","{'avg': 1151.818207664456, 'med': 1109.8561609371557, 'perc95': 2277.7865966965232, 'min': -694.4230600102567, 'max': 3245.9198663256097}","{'avg': 856.923806700956, 'med': 877.2876936399722, 'perc95': 1774.832552970473, 'min': -1258.861120250031, 'max': 2766.9197159664327}","{'avg': 642.5621836032296, 'med': 660.5937012214455, 'perc95': 1762.7790288284343, 'min': -1586.0251174941923, 'max': 2956.6994868806446}","{'avg': 2226.819288568486, 'med': 2227.8309258338327, 'perc95': 3164.3786840709618, 'min': -496.59189712207353, 'max': 3811.1254277349444}","{'avg': 1241.435582533096, 'med': 1236.1317826709378, 'perc95': 1676.7243880356327, 'min': 479.5171648194013, 'max': 1930.2080262038885}","{'avg': 38.76755063870873, 'med': 23.116282702474052, 'perc95': 972.9109544779817, 'min': -2120.9199137049613, 'max': 2210.9852157915907}","{'avg': 2395.7519689393216, 'med': 2406.1572213792797, 'perc95': 3404.146890719294, 'min': 243.13350228178933, 'max': 4576.7502877056595}","{'avg': 1677.1464903446085, 'med': 1676.951477810315, 'perc95': 2124.084916298255, 'min': 810.932100749842, 'max': 2707.0236234805957}","{'avg': 1330.8906468912476, 'med': 1335.4366593037723, 'perc95': 1865.656107416649, 'min': 375.531073202911, 'max': 2246.976399345233}","{'avg': 1827.487787434481, 'med': 1824.533179709904, 'perc95': 1932.9913103418796, 'min': 1627.590184905208, 'max': 2024.8251279783374}","{'avg': 1494.7949288477027, 'med': 1469.4659822963233, 'perc95': 2793.0303456001316, 'min': -908.8928525512204, 'max': 4593.0124509047655}","{'avg': 1637.5413952377041, 'med': 1626.2123863898073, 'perc95': 2367.2915831120276, 'min': 339.8768946902974, 'max': 3211.38521883479}","{'avg': 1900.7713660479512, 'med': 1873.1511137359332, 'perc95': 3072.843557764941, 'min': -153.2293104255166, 'max': 3996.4394804498206}"
PlanC,"{'avg': 1168.9962164794206, 'med': 1161.8825345302703, 'perc95': 2079.3271608815753, 'min': -461.7323319916268, 'max': 3192.6075352526095}","{'avg': 406.20503873845496, 'med': 394.63551600319124, 'perc95': 1553.462544743469, 'min': -1392.958317226483, 'max': 2600.263132150257}","{'avg': 831.4908377758144, 'med': 820.7130149267977, 'perc95': 1172.3832071156003, 'min': 128.36534091371766, 'max': 1499.7073212228347}","{'avg': 2339.327816527741, 'med': 2371.523926928516, 'perc95': 3483.458509800428, 'min': 166.67279163046078, 'max': 4473.893392346807}","{'avg': 2292.4192920261935, 'med': 2264.475996758861, 'perc95': 3060.249283463181, 'min': 963.6946869360245, 'max': 3511.0594175556284}","{'avg': 2711.752230286663, 'med': 2697.101024662979, 'perc95': 3511.6223828049206, 'min': 1122.4708626853335, 'max': 4361.136106215961}","{'avg': 1450.4622413193285, 'med': 1441.917539188955, 'perc95': 1921.9679801729048, 'min': 555.088102698892, 'max': 2609.364652898097}","{'avg': 704.280380904063, 'med': 704.2940339262902, 'perc95': 835.8615970933581, 'min': 448.23261757766585, 'max': 974.2280060452873}","{'avg': 2220.9389340195107, 'med': 2213.7071046346596, 'perc95': 3485.361137319446, 'min': -18.784316490441597, 'max': 4503.8905335458785}","{'avg': 1683.9253253164118, 'med': 1686.7068793787446, 'perc95': 3141.4186128058964, 'min': -1034.0307225890053, 'max': 3845.6017552800695}","{'avg': 2198.260476648, 'med': 2218.1563511333356, 'perc95': 3740.781307894473, 'min': -576.5166476617837, 'max': 5490.352219453638}","{'avg': 759.8660498433165, 'med': 762.5770877754259, 'perc95': 1551.0007135159021, 'min': -903.4556980281974, 'max': 2001.743288397729}","{'avg': 1778.4821296979455, 'med': 1789.8791757126426, 'perc95': 2036.8925439571226, 'min': 1267.4430032960413, 'max': 2167.821485964091}","{'avg': 2605.8441339644314, 'med': 2603.5245796286044, 'perc95': 3072.7691529519943, 'min': 1743.9495508704915, 'max': 3534.0289769523943}","{'avg': 95.71407136153861, 'med': 75.84743661472046, 'perc95': 748.2329533432893, 'min': -1132.9604764576154, 'max': 1521.751393552124}","{'avg': 2354.863729846792, 'med': 2355.7973794151035, 'perc95': 2495.53906418721, 'min': 2076.7391683426736, 'max': 2613.4033346204415}","{'avg': 2894.174487069128, 'med': 2894.7259692641583, 'perc95': 2980.41889083755, 'min': 2738.2738532426124, 'max': 3045.536805846753}","{'avg': 2105.2756927268615, 'med': 2104.1672292005173, 'perc95': 2530.559616692567, 'min': 1292.803571196131, 'max': 2964.295734902454}","{'avg': 838.3928864391452, 'med': 821.4517362236763, 'perc95': 1495.4619360705283, 'min': -159.4004563654479, 'max': 1946.9151396669708}","{'avg': 426.6346319743352, 'med': 421.6185387335347, 'perc95': 1464.341757678189, 'min': -1252.2091107210213, 'max': 2406.306156080839}","{'avg': 2669.7569606374436, 'med': 2665.450080995278, 'perc95': 2926.72768160912, 'min': 2207.361329817137, 'max': 3162.41056160073}","{'avg': 2673.007325512445, 'med': 2668.17475241565, 'perc95': 3456.152387121483, 'min': 1412.0027693069355, 'max': 4384.4008677335005}","{'avg': 2525.662631179852, 'med': 2531.505253816377, 'perc95': 3469.011565206831, 'min': 575.4023148105236, 'max': 4349.316908836878}","{'avg': 2916.5271895418077, 'med': 2936.79809640867, 'perc95': 4243.145874937754, 'min': 529.7863090517831, 'max': 5244.075912023844}","{'avg': 1809.6146543012837, 'med': 1819.9994892065945, 'perc95': 2114.8369345441865, 'min': 1157.9326666460354, 'max': 2357.7922308013235}"
PlanD,"{'avg': 392.10078944312505, 'med': 409.4751071971373, 'perc95': 1754.128289608933, 'min': -2254.409246627957, 'max': 3271.457630504895}","{'avg': 2945.103496935089, 'med': 2963.6056764528935, 'perc95': 4335.2097688617105, 'min': 771.9349259955488, 'max': 6208.654270529825}","{'avg': 1405.9292578888624, 'med': 1415.1677407905654, 'perc95': 2011.886894562494, 'min': 340.28163899967126, 'max': 2580.1559711336095}","{'avg': 2166.324944243955, 'med': 2166.700601247651, 'perc95': 2485.345264503816, 'min': 1503.3395409953328, 'max': 3031.814946599761}","{'avg': 502.19752254536246, 'med': 504.6627045718495, 'perc95': 787.6496137122413, 'min': 39.1837245807115, 'max': 1068.4782376672338}","{'avg': 2974.9738059504725, 'med': 3001.913824535747, 'perc95': 3863.7201804966917, 'min': 1500.6512388303688, 'max': 4437.656835272278}","{'avg': 415.2179134198739, 'med': 402.57955330729965, 'perc95': 1511.181534865127, 'min': -1745.1071433488848, 'max': 2755.277065535496}","{'avg': 1108.1011478310088, 'med': 1107.3441668407092, 'perc95': 2682.974962721784, 'min': -2015.3817826180532, 'max': 4812.252578066657}","{'avg': 261.0930859963204, 'med': 262.0976402678159, 'perc95': 359.67176716829385, 'min': 98.5252503101085, 'max': 404.17023236486637}","{'avg': 2661.138703926751, 'med': 2671.6381403137866, 'perc95': 3947.982688075292, 'min': 281.27890401226614, 'max': 5114.359514158312}","{'avg': 1524.737341437623, 'med': 1530.5878568135427, 'perc95': 1909.8366715602974, 'min': 772.3552703913068, 'max': 2238.852034016537}","{'avg': 687.2585348267855, 'med': 691.4056331862265, 'perc95': 1420.6713761117157, 'min': -734.0769141572454, 'max': 1943.9881790975214}","{'avg': 1231.0410916370386, 'med': 1200.3923981751436, 'perc95': 2660.984763712504, 'min': -960.8408281292709, 'max': 4039.9137886694043}","{'avg': 1502.901215037618, 'med': 1500.2589292052012, 'perc95': 1859.500136226647, 'min': 844.0739957800922, 'max': 2201.0380824927647}","{'avg': 104.55135197555047, 'med': 114.78489234526651, 'perc95': 1173.1610424210596, 'min': -2304.3763762041845, 'max': 2026.4253219243155}","{'avg': 895.7670540661338, 'med': 888.8011375502787, 'perc95': 1363.9915293071426, 'min': 191.44746282614506, 'max': 1698.4924040397423}","{'avg': 57.52496446312116, 'med': 43.02698062689353, 'perc95': 866.5192111880253, 'min': -1457.118315014005, 'max': 1510.379281232534}","{'avg': 782.3701225691784, 'med': 780.5329903255972, 'perc95': 2234.1769924341893, 'min': -1745.91746964788, 'max': 3820.9831542557226}","{'avg': 1326.6172666129496, 'med': 1340.2838573616132, 'perc95': 1944.048725805899, 'min': -298.0635320946883, 'max': 2460.8618120344026}","{'avg': 933.6581214672515, 'med': 920.6494659497482, 'perc95': 1895.832618944983, 'min': -663.8543414480137, 'max': 2466.0089281396467}","{'avg': 2867.092229972122, 'med': 2869.668173449988, 'perc95': 3002.1179801459425, 'min': 2611.3175082383223, 'max': 3116.1237333718336}","{'avg': 1724.7065395260438, 'med': 1703.7411303841357, 'perc95': 2604.2068085010333, 'min': 116.69180027749167, 'max': 3261.424335353258}","{'avg': 776.1581330049474, 'med': 735.4103621496408, 'perc95': 2420.451171677424, 'min': -2098.109084136874, 'max': 3302.7770928114933}","{'avg': 2629.239903402581, 'med': 2628.45467343842, 'perc95': 2744.8469098033875, 'min': 2370.8462498366025, 'max': 2825.210235802124}","{'avg': 130.17435547942574, 'med': 144.3594147136947, 'perc95': 592.9716605681197, 'min': -784.1375569555028, 'max': 1085.5142962318278}"
